Time,X,Y,Trial,ElementName,DisplayName
3672,544,221,1,Guest Count,DMN model
3754,532,201,1,Guest Count,DMN model
3792,515,195,1,,DMN model
3831,468,149,1,Dish Decision,DMN model
3872,438,115,1,Dish Decision,DMN model
3912,443,118,1,Dish Decision,DMN model
3951,458,127,1,Dish Decision,DMN model
3987,453,128,1,Dish Decision,DMN model
4020,461,128,1,Dish Decision,DMN model
4055,453,121,1,Dish Decision,DMN model
4106,450,122,1,Dish Decision,DMN model
4142,452,124,1,Dish Decision,DMN model
4181,457,126,1,Dish Decision,DMN model
4218,464,126,1,Dish Decision,DMN model
4255,463,119,1,Dish Decision,DMN model
4292,462,122,1,Dish Decision,DMN model
4330,471,119,1,Dish Decision,DMN model
4368,475,116,1,Dish Decision,DMN model
4407,461,116,1,Dish Decision,DMN model
4443,466,119,1,Dish Decision,DMN model
4489,466,118,1,Dish Decision,DMN model
4525,461,109,1,Dish Decision,DMN model
4568,463,109,1,Dish Decision,DMN model
4610,478,108,1,Dish Decision,DMN model
4657,497,113,1,Dish Decision,DMN model
4706,510,109,1,Dish Decision,DMN model
4756,540,105,1,,DMN model
4810,555,100,1,,DMN model
4868,568,110,1,,DMN model
4932,594,108,1,,DMN model
4981,601,104,1,,DMN model
5022,602,104,1,,DMN model
5069,610,108,1,,DMN model
5111,602,108,1,,DMN model
5156,600,102,1,,DMN model
5197,628,104,1,,DMN model
5237,650,104,1,,DMN model
5277,617,106,1,,DMN model
5325,680,107,1,,DMN model
5374,645,107,1,,DMN model
5407,690,101,1,Host,DMN model
5442,440,96,1,Dish Decision,DMN model
5478,291,85,1,,DMN model
5512,345,87,1,Dish Decision,DMN model
5547,465,100,1,Dish Decision,DMN model
5587,661,105,1,,DMN model
5623,669,105,1,,DMN model
5661,737,117,1,Host,DMN model
5698,729,111,1,Host,DMN model
5732,658,109,1,,DMN model
5767,642,106,1,,DMN model
5800,720,115,1,Host,DMN model
5835,745,114,1,Host,DMN model
5869,724,110,1,Host,DMN model
5903,684,111,1,,DMN model
5938,666,114,1,,DMN model
5975,724,114,1,Host,DMN model
6010,729,116,1,Host,DMN model
6045,709,108,1,Host,DMN model
6082,764,115,1,Host,DMN model
6125,779,112,1,Host,DMN model
6167,743,112,1,Host,DMN model
6206,707,105,1,Host,DMN model
6247,687,103,1,,DMN model
6290,585,102,1,,DMN model
6333,616,104,1,,DMN model
6375,664,107,1,,DMN model
6412,663,109,1,,DMN model
6450,572,105,1,,DMN model
6508,578,101,1,,DMN model
6547,575,106,1,,DMN model
6586,531,105,1,Dish Decision,DMN model
6626,567,108,1,,DMN model
6702,574,107,1,,DMN model
6739,556,107,1,,DMN model
6773,467,105,1,Dish Decision,DMN model
6808,523,105,1,Dish Decision,DMN model
6841,494,105,1,Dish Decision,DMN model
6883,554,103,1,,DMN model
6918,572,102,1,,DMN model
6952,639,105,1,,DMN model
7007,686,109,1,,DMN model
7042,743,109,1,Host,DMN model
7097,784,111,1,Host,DMN model
7134,540,96,1,,DMN model
7176,573,101,1,,DMN model
7215,499,101,1,Dish Decision,DMN model
7267,478,97,1,Dish Decision,DMN model
7311,460,95,1,Dish Decision,DMN model
7347,492,102,1,Dish Decision,DMN model
7384,481,102,1,Dish Decision,DMN model
7421,496,104,1,Dish Decision,DMN model
7457,477,105,1,Dish Decision,DMN model
7508,470,103,1,Dish Decision,DMN model
7562,484,107,1,Dish Decision,DMN model
7596,479,105,1,Dish Decision,DMN model
7650,488,107,1,Dish Decision,DMN model
7684,408,104,1,Dish Decision,DMN model
7718,430,109,1,Dish Decision,DMN model
7752,429,109,1,Dish Decision,DMN model
7787,441,112,1,Dish Decision,DMN model
7822,430,109,1,Dish Decision,DMN model
7855,433,110,1,Dish Decision,DMN model
7890,424,108,1,Dish Decision,DMN model
7924,437,111,1,Dish Decision,DMN model
7960,409,104,1,Dish Decision,DMN model
8013,405,103,1,Dish Decision,DMN model
8047,405,103,1,Dish Decision,DMN model
8082,426,108,1,Dish Decision,DMN model
8122,417,106,1,Dish Decision,DMN model
8157,403,102,1,Dish Decision,DMN model
8189,429,109,1,Dish Decision,DMN model
8234,416,106,1,Dish Decision,DMN model
8292,429,109,1,Dish Decision,DMN model
8327,409,104,1,Dish Decision,DMN model
8362,425,108,1,Dish Decision,DMN model
8396,420,107,1,Dish Decision,DMN model
8430,442,112,1,Dish Decision,DMN model
8464,434,110,1,Dish Decision,DMN model
8499,431,109,1,Dish Decision,DMN model
8535,432,110,1,Dish Decision,DMN model
8572,431,109,1,Dish Decision,DMN model
8611,442,112,1,Dish Decision,DMN model
8652,440,112,1,Dish Decision,DMN model
8689,442,112,1,Dish Decision,DMN model
8725,452,115,1,Dish Decision,DMN model
8760,443,113,1,Dish Decision,DMN model
8795,447,113,1,Dish Decision,DMN model
8832,408,104,1,Dish Decision,DMN model
8873,405,103,1,Dish Decision,DMN model
8909,395,100,1,Dish Decision,DMN model
8945,401,102,1,Dish Decision,DMN model
8980,422,107,1,Dish Decision,DMN model
9013,432,110,1,Dish Decision,DMN model
9047,446,113,1,Dish Decision,DMN model
9081,426,108,1,Dish Decision,DMN model
9121,472,105,1,Dish Decision,DMN model
9158,468,105,1,Dish Decision,DMN model
9197,491,109,1,Dish Decision,DMN model
9235,488,108,1,Dish Decision,DMN model
9275,508,121,1,Dish Decision,DMN model
9314,459,104,1,Dish Decision,DMN model
9353,485,139,1,Dish Decision,DMN model
9397,490,138,1,Dish Decision,DMN model
9440,490,169,1,,DMN model
9496,506,193,1,,DMN model
9559,509,194,1,,DMN model
9599,513,218,1,Guest Count,DMN model
9647,501,200,1,Guest Count,DMN model
9690,500,217,1,Guest Count,DMN model
9728,510,213,1,Guest Count,DMN model
9769,517,230,1,Guest Count,DMN model
9810,517,223,1,Guest Count,DMN model
9852,511,215,1,Guest Count,DMN model
9891,508,203,1,Guest Count,DMN model
9928,518,214,1,Guest Count,DMN model
9971,511,207,1,Guest Count,DMN model
10010,513,196,1,,DMN model
10044,519,207,1,Guest Count,DMN model
10080,508,201,1,Guest Count,DMN model
10114,516,205,1,Guest Count,DMN model
10157,514,211,1,Guest Count,DMN model
10191,514,208,1,Guest Count,DMN model
10233,506,192,1,,DMN model
10271,535,262,1,Guest Count,DMN model
10308,519,234,1,Guest Count,DMN model
10370,519,222,1,Guest Count,DMN model
10406,524,226,1,Guest Count,DMN model
10442,520,221,1,Guest Count,DMN model
10476,523,250,1,Guest Count,DMN model
10511,518,245,1,Guest Count,DMN model
10545,525,256,1,Guest Count,DMN model
10580,509,240,1,Guest Count,DMN model
10614,506,240,1,Guest Count,DMN model
10648,497,235,1,Guest Count,DMN model
10682,479,219,1,Guest Count,DMN model
10716,487,228,1,Guest Count,DMN model
10751,491,225,1,Guest Count,DMN model
10785,476,210,1,Guest Count,DMN model
10819,497,228,1,Guest Count,DMN model
10854,487,212,1,Guest Count,DMN model
10892,533,274,1,Guest Count,DMN model
10928,536,263,1,Guest Count,DMN model
10962,537,263,1,Guest Count,DMN model
11003,528,261,1,Guest Count,DMN model
11038,535,264,1,Guest Count,DMN model
11076,537,267,1,Guest Count,DMN model
11126,534,268,1,Guest Count,DMN model
11168,526,260,1,Guest Count,DMN model
11229,525,253,1,Guest Count,DMN model
11276,514,249,1,Guest Count,DMN model
11311,533,260,1,Guest Count,DMN model
11346,529,257,1,Guest Count,DMN model
11384,521,257,1,Guest Count,DMN model
11421,534,255,1,Guest Count,DMN model
11460,497,248,1,Guest Count,DMN model
11497,500,246,1,Guest Count,DMN model
11531,507,245,1,Guest Count,DMN model
11566,504,243,1,Guest Count,DMN model
11600,497,241,1,Guest Count,DMN model
11635,495,243,1,Guest Count,DMN model
11670,482,242,1,Guest Count,DMN model
11707,476,235,1,Guest Count,DMN model
11749,477,249,1,Guest Count,DMN model
11790,469,234,1,Guest Count,DMN model
11832,464,246,1,Guest Count,DMN model
11871,476,242,1,Guest Count,DMN model
11910,460,250,1,Guest Count,DMN model
11948,457,247,1,Guest Count,DMN model
12007,437,248,1,Guest Count,DMN model
12071,402,247,1,,DMN model
12139,386,253,1,Season decision,DMN model
12180,374,254,1,Season decision,DMN model
12219,414,257,1,,DMN model
12260,360,252,1,Season decision,DMN model
12303,345,248,1,Season decision,DMN model
12346,340,252,1,Season decision,DMN model
12385,336,252,1,Season decision,DMN model
12426,341,255,1,Season decision,DMN model
12470,327,251,1,Season decision,DMN model
12505,315,252,1,Season decision,DMN model
12540,347,254,1,Season decision,DMN model
12574,342,255,1,Season decision,DMN model
12609,351,258,1,Season decision,DMN model
12644,346,252,1,Season decision,DMN model
12680,346,252,1,Season decision,DMN model
12715,340,251,1,Season decision,DMN model
12753,311,254,1,Season decision,DMN model
12794,320,250,1,Season decision,DMN model
12832,293,248,1,Season decision,DMN model
12870,286,251,1,Season decision,DMN model
12907,315,251,1,Season decision,DMN model
12942,297,251,1,Season decision,DMN model
12976,296,254,1,Season decision,DMN model
13014,290,254,1,Season decision,DMN model
13054,293,250,1,Season decision,DMN model
13091,291,252,1,Season decision,DMN model
13133,294,251,1,Season decision,DMN model
13169,291,253,1,Season decision,DMN model
13204,306,246,1,Season decision,DMN model
13241,313,233,1,Season decision,DMN model
13274,302,242,1,Season decision,DMN model
13313,308,254,1,Season decision,DMN model
13353,307,253,1,Season decision,DMN model
13391,306,247,1,Season decision,DMN model
13428,318,238,1,Season decision,DMN model
13469,318,200,1,Season decision,DMN model
13524,308,214,1,Season decision,DMN model
13588,336,206,1,Season decision,DMN model
13650,429,121,1,Dish Decision,DMN model
13690,388,155,1,,DMN model
13727,412,138,1,Dish Decision,DMN model
13765,429,125,1,Dish Decision,DMN model
13799,416,123,1,Dish Decision,DMN model
13833,400,137,1,Dish Decision,DMN model
13874,396,128,1,Dish Decision,DMN model
13906,387,150,1,Dish Decision,DMN model
13948,475,66,1,,DMN model
13987,391,131,1,Dish Decision,DMN model
14029,428,128,1,Dish Decision,DMN model
14082,365,182,1,,DMN model
14130,368,163,1,Dish Decision,DMN model
14173,341,195,1,,DMN model
14217,373,172,1,,DMN model
14308,306,216,1,Season decision,DMN model
14384,338,198,1,,DMN model
14429,338,207,1,Season decision,DMN model
14482,324,233,1,Season decision,DMN model
14520,317,230,1,Season decision,DMN model
14559,292,247,1,Season decision,DMN model
14599,296,246,1,Season decision,DMN model
14637,345,215,1,Season decision,DMN model
14672,314,233,1,Season decision,DMN model
14710,330,223,1,Season decision,DMN model
14743,349,197,1,,DMN model
14785,349,191,1,,DMN model
14826,314,231,1,Season decision,DMN model
14874,315,227,1,Season decision,DMN model
14911,315,234,1,Season decision,DMN model
14952,337,209,1,Season decision,DMN model
14988,306,240,1,Season decision,DMN model
15023,321,238,1,Season decision,DMN model
15059,313,234,1,Season decision,DMN model
15093,319,230,1,Season decision,DMN model
15128,314,238,1,Season decision,DMN model
15165,335,207,1,Season decision,DMN model
15199,343,205,1,,DMN model
15232,334,214,1,Season decision,DMN model
15275,331,234,1,Season decision,DMN model
15308,331,232,1,Season decision,DMN model
15345,316,239,1,Season decision,DMN model
15383,307,247,1,Season decision,DMN model
15421,295,248,1,Season decision,DMN model
15457,307,249,1,Season decision,DMN model
15506,277,269,1,Season decision,DMN model
15566,268,298,1,,DMN model
15609,282,304,1,,DMN model
15670,305,154,1,,DMN model
15714,285,285,1,Season decision,DMN model
15750,245,287,1,Season decision,DMN model
15791,286,321,1,,DMN model
15828,300,303,1,,DMN model
15863,263,348,1,Weather in Celsius,DMN model
15901,280,343,1,Weather in Celsius,DMN model
15936,268,349,1,Weather in Celsius,DMN model
15972,283,360,1,Weather in Celsius,DMN model
16010,284,353,1,Weather in Celsius,DMN model
16045,260,359,1,Weather in Celsius,DMN model
16084,274,363,1,Weather in Celsius,DMN model
16127,284,346,1,Weather in Celsius,DMN model
16167,256,372,1,Weather in Celsius,DMN model
16204,255,374,1,Weather in Celsius,DMN model
16251,259,369,1,Weather in Celsius,DMN model
16289,254,364,1,Weather in Celsius,DMN model
16325,247,371,1,Weather in Celsius,DMN model
16368,260,376,1,Weather in Celsius,DMN model
16409,246,356,1,Weather in Celsius,DMN model
16447,276,363,1,Weather in Celsius,DMN model
16484,249,374,1,Weather in Celsius,DMN model
16521,246,359,1,Weather in Celsius,DMN model
16556,269,363,1,Weather in Celsius,DMN model
16595,271,354,1,Weather in Celsius,DMN model
16630,265,352,1,Weather in Celsius,DMN model
16672,284,362,1,Weather in Celsius,DMN model
16709,271,362,1,Weather in Celsius,DMN model
16745,291,353,1,Weather in Celsius,DMN model
16779,293,358,1,Weather in Celsius,DMN model
16815,275,365,1,Weather in Celsius,DMN model
16847,274,364,1,Weather in Celsius,DMN model
16880,265,369,1,Weather in Celsius,DMN model
16915,279,366,1,Weather in Celsius,DMN model
16948,284,368,1,Weather in Celsius,DMN model
16985,291,362,1,Weather in Celsius,DMN model
17022,291,358,1,Weather in Celsius,DMN model
17059,289,347,1,Weather in Celsius,DMN model
17094,284,359,1,Weather in Celsius,DMN model
17137,286,329,1,,DMN model
17179,313,309,1,,DMN model
17221,291,320,1,,DMN model
17264,279,326,1,,DMN model
17311,296,307,1,,DMN model
17352,294,294,1,,DMN model
17394,298,284,1,,DMN model
17429,300,304,1,,DMN model
17466,300,301,1,,DMN model
17506,305,302,1,,DMN model
17540,289,300,1,,DMN model
17577,302,303,1,,DMN model
17620,296,308,1,,DMN model
17661,282,307,1,,DMN model
17699,290,311,1,,DMN model
17747,290,292,1,,DMN model
17793,285,273,1,Season decision,DMN model
17848,289,283,1,Season decision,DMN model
17914,298,252,1,Season decision,DMN model
17979,315,195,1,,DMN model
18013,308,186,1,,DMN model
18052,323,179,1,,DMN model
18085,328,180,1,,DMN model
18118,327,189,1,,DMN model
18155,321,176,1,,DMN model
18187,330,173,1,,DMN model
18219,330,191,1,,DMN model
18258,288,265,1,Season decision,DMN model
18292,288,261,1,Season decision,DMN model
18327,333,265,1,Season decision,DMN model
18365,347,259,1,Season decision,DMN model
18401,334,244,1,Season decision,DMN model
18437,321,259,1,Season decision,DMN model
18481,400,302,1,,DMN model
18519,383,302,1,,DMN model
18564,377,303,1,,DMN model
18611,366,293,1,Season decision,DMN model
18663,443,356,1,,DMN model
18712,422,347,1,,DMN model
18757,413,352,1,,DMN model
18803,470,382,1,,DMN model
18845,470,362,1,,DMN model
18883,448,372,1,,DMN model
18920,434,351,1,,DMN model
18953,434,334,1,,DMN model
18990,442,352,1,,DMN model
19027,459,400,1,Type of day,DMN model
19061,455,401,1,Type of day,DMN model
19101,467,396,1,Type of day,DMN model
19139,452,323,1,,DMN model
19177,460,365,1,,DMN model
19219,471,409,1,Type of day,DMN model
19261,455,425,1,,DMN model
19302,467,460,1,,DMN model
19346,469,448,1,,DMN model
19381,477,439,1,,DMN model
19418,466,432,1,,DMN model
19461,467,432,1,,DMN model
19501,449,476,1,,DMN model
19556,464,455,1,,DMN model
19595,455,473,1,,DMN model
19630,451,426,1,Type of day,DMN model
19668,460,444,1,,DMN model
19709,458,432,1,,DMN model
19747,484,455,1,,DMN model
19786,473,438,1,,DMN model
19827,476,454,1,,DMN model
19865,492,392,1,Type of day,DMN model
19905,493,399,1,Type of day,DMN model
19950,485,375,1,,DMN model
19995,506,386,1,Type of day,DMN model
20036,508,398,1,Type of day,DMN model
20084,492,395,1,Type of day,DMN model
20124,477,412,1,Type of day,DMN model
20161,527,281,1,Guest Count,DMN model
20200,530,317,1,,DMN model
20237,551,203,1,Guest Count,DMN model
20270,536,266,1,Guest Count,DMN model
20308,543,270,1,Guest Count,DMN model
20342,490,386,1,Type of day,DMN model
20376,497,358,1,,DMN model
20412,500,359,1,,DMN model
20447,519,322,1,,DMN model
20481,491,380,1,Type of day,DMN model
20518,557,216,1,Guest Count,DMN model
20552,533,288,1,Guest Count,DMN model
20586,521,311,1,,DMN model
20622,527,288,1,Guest Count,DMN model
20656,493,367,1,,DMN model
20693,548,217,1,Guest Count,DMN model
20732,544,228,1,Guest Count,DMN model
20774,583,259,1,Guest Count,DMN model
20810,598,236,1,Guest Count,DMN model
20855,612,322,1,,DMN model
20894,628,294,1,,DMN model
20933,635,270,1,,DMN model
20975,623,280,1,,DMN model
21018,594,279,1,Guest Count,DMN model
21066,595,275,1,Guest Count,DMN model
21119,742,432,1,El menú,DMN model
21160,719,389,1,El menú,DMN model
21197,727,392,1,El menú,DMN model
21243,773,479,1,,DMN model
21285,751,445,1,,DMN model
21330,728,423,1,El menú,DMN model
21377,693,386,1,El menú,DMN model
21417,784,393,1,,DMN model
21462,807,420,1,,DMN model
21503,847,323,1,,DMN model
21545,766,326,1,,DMN model
21610,829,313,1,,DMN model
21675,806,375,1,,DMN model
21738,571,73,1,,DMN model
21772,560,30,1,,DMN model
21811,561,-3,1,n/a,DMN model
21854,747,295,1,,DMN model
21909,582,193,1,,DMN model
21954,628,205,1,,DMN model
22014,656,233,1,,DMN model
22071,602,228,1,Guest Count,DMN model
22115,627,261,1,,DMN model
22159,652,261,1,,DMN model
22198,429,135,1,Dish Decision,DMN model
22244,408,122,1,Dish Decision,DMN model
22282,413,111,1,Dish Decision,DMN model
22318,391,104,1,Dish Decision,DMN model
22356,396,104,1,Dish Decision,DMN model
22392,421,113,1,Dish Decision,DMN model
22427,432,112,1,Dish Decision,DMN model
22467,405,101,1,Dish Decision,DMN model
22502,402,113,1,Dish Decision,DMN model
22539,429,124,1,Dish Decision,DMN model
22580,466,135,1,Dish Decision,DMN model
22616,469,140,1,Dish Decision,DMN model
22651,441,123,1,Dish Decision,DMN model
22688,440,125,1,Dish Decision,DMN model
22727,432,127,1,Dish Decision,DMN model
22763,459,139,1,Dish Decision,DMN model
22806,501,188,1,,DMN model
22878,537,217,1,Guest Count,DMN model
22942,556,248,1,Guest Count,DMN model
22986,554,267,1,Guest Count,DMN model
23050,550,267,1,Guest Count,DMN model
23084,543,265,1,Guest Count,DMN model
23123,519,247,1,Guest Count,DMN model
23164,530,256,1,Guest Count,DMN model
23205,536,269,1,Guest Count,DMN model
23253,525,238,1,Guest Count,DMN model
23290,530,242,1,Guest Count,DMN model
23325,524,231,1,Guest Count,DMN model
23362,516,230,1,Guest Count,DMN model
23396,530,243,1,Guest Count,DMN model
23433,516,267,1,Guest Count,DMN model
23473,519,274,1,Guest Count,DMN model
23532,599,245,1,Guest Count,DMN model
23577,663,259,1,,DMN model
23619,667,253,1,,DMN model
23655,645,252,1,,DMN model
23692,626,261,1,,DMN model
23763,655,244,1,,DMN model
23801,680,234,1,Guest Type,DMN model
23836,658,236,1,,DMN model
23884,736,233,1,Guest Type,DMN model
23918,717,236,1,Guest Type,DMN model
23952,729,234,1,Guest Type,DMN model
23989,712,248,1,Guest Type,DMN model
24023,709,248,1,Guest Type,DMN model
24058,709,248,1,Guest Type,DMN model
24095,611,255,1,Guest Count,DMN model
24132,621,256,1,,DMN model
24166,637,259,1,,DMN model
24203,694,264,1,Guest Type,DMN model
24237,712,256,1,Guest Type,DMN model
24277,721,248,1,Guest Type,DMN model
24314,725,251,1,Guest Type,DMN model
24353,662,215,1,,DMN model
24393,725,207,1,Guest Type,DMN model
24434,666,146,1,,DMN model
24472,699,183,1,,DMN model
24508,728,167,1,,DMN model
24550,687,161,1,,DMN model
24584,675,122,1,,DMN model
24617,709,154,1,,DMN model
24654,707,165,1,,DMN model
24690,700,135,1,Host,DMN model
24729,732,167,1,,DMN model
24776,388,105,1,Dish Decision,DMN model
24814,382,125,1,Dish Decision,DMN model
24853,297,84,1,,DMN model
24894,319,77,1,,DMN model
24935,192,68,1,,DMN model
24975,229,70,1,,DMN model
25020,197,84,1,,DMN model
25070,234,104,1,,DMN model
25113,166,89,1,,DMN model
25168,173,105,1,,DMN model
25211,175,127,1,,DMN model
25247,170,137,1,,DMN model
25288,171,127,1,,DMN model
25324,151,126,1,,DMN model
25363,173,123,1,,DMN model
25404,178,125,1,,DMN model
25444,153,121,1,,DMN model
25495,177,120,1,,DMN model
25541,173,123,1,,DMN model
25584,204,121,1,,DMN model
25621,187,125,1,,DMN model
25664,357,96,1,Dish Decision,DMN model
25702,358,77,1,Dish Decision,DMN model
25742,380,102,1,Dish Decision,DMN model
25795,269,118,1,,DMN model
25834,323,109,1,,DMN model
25877,578,114,1,,DMN model
25932,668,120,1,,DMN model
25976,609,128,1,,DMN model
26018,800,116,1,,DMN model
26064,769,120,1,Host,DMN model
26108,922,125,1,,DMN model
26146,841,121,1,,DMN model
26195,978,116,1,,DMN model
26235,933,121,1,,DMN model
26271,598,115,1,,DMN model
26314,980,108,1,,DMN model
26354,992,112,1,,DMN model
26395,952,116,1,,DMN model
26435,997,117,1,,DMN model
26475,929,142,1,,DMN model
26513,905,143,1,,DMN model
26555,1001,172,1,,DMN model
26611,1016,166,1,,DMN model
26650,1020,195,1,,DMN model
26689,1018,191,1,,DMN model
26728,1045,187,1,,DMN model
26766,1020,165,1,,DMN model
26808,1034,198,1,,DMN model
26846,1008,179,1,,DMN model
26885,1008,229,1,,DMN model
26925,950,211,1,,DMN model
26963,1053,269,1,,DMN model
27000,1033,259,1,,DMN model
27041,966,274,1,,DMN model
27079,968,269,1,,DMN model
27113,961,264,1,,DMN model
27151,962,257,1,,DMN model
27189,1017,285,1,,DMN model
27226,1002,288,1,,DMN model
27266,1034,272,1,,DMN model
27302,1043,267,1,,DMN model
27351,1041,264,1,,DMN model
27398,1041,276,1,,DMN model
27454,1065,268,1,,DMN model
27491,1081,272,1,,DMN model
27530,1073,262,1,,DMN model
27576,1085,263,1,,DMN model
